INDEX VERSION 1.127+C:\Workspace\SeleniumTests\.metadata\.plugins\org.eclipse.jdt.core
2816837451.index
4067028507.index
1222167260.index
1848951451.index
2267676863.index
3764404749.index
1743977347.index
4236009997.index
153819722.index
2882429829.index
291826674.index
83085761.index
254760002.index
1484076330.index
2261558828.index
1035824313.index
1651349548.index
2025994995.index
165295743.index
74204033.index
825950168.index
3015206167.index
3964841418.index
1653589053.index
2373883691.index
509712851.index
4142306923.index
3860933882.index
1670528678.index
2945162093.index
1227705157.index
238446123.index
1893439535.index
2117460580.index
1257009386.index
4158163888.index
1246371810.index
2936182247.index
4130710096.index
431402002.index
2993572255.index
1948745554.index
1507339265.index
47423239.index
2782477721.index
3930511455.index
774558276.index
3372001391.index
3876561862.index
60658385.index
2992928442.index
3181988516.index
480490622.index
3502078659.index
3678980623.index
686651625.index
900771366.index
430205200.index
769736678.index
461860685.index
2263273896.index
3489412715.index
2590685304.index
171558970.index
